symbol,metric,use
a,Ask,TRUE
b,Bid,TRUE
b4,Book Value,TRUE
c1,Change,TRUE
c8,After Hours Change (Real-time),FALSE
d2,Trade Date,TRUE
e7,EPS Estimate Current Year,TRUE
f6,Float Shares,TRUE
j,52-week Low,TRUE
g3,Annualized Gain,TRUE
g6,Holdings Gain (Real-time),FALSE
j1,Market Capitalization,TRUE
j5,Change From 52-week Low,TRUE
k2,Change Percent (Real-time),FALSE
k5,Percent Change From 52-week High,TRUE
l2,High Limit,TRUE
m2,Day's Range (Real-time),FALSE
m5,Change From 200-day Moving Average,TRUE
m8,Percent Change From 50-day Moving Average,TRUE
o,Open,TRUE
p2,Change in Percent,FALSE
q,Ex-Dividend Date,TRUE
r2,P/E Ratio (Real-time),FALSE
r7,Price/EPS Estimate Next Year,TRUE
s7,Short Ratio,TRUE
t7,Ticker Trend,TRUE
v1,Holdings Value,TRUE
w1,Day's Value Change,TRUE
y,Dividend Yield,TRUE
a2,Average Daily Volume,TRUE
b2,Ask (Real-time),FALSE
b6,Bid Size,TRUE
c3,Commission,TRUE
d,Dividend/Share,TRUE
e,Earnings/Share,TRUE
e8,EPS Estimate Next Year,TRUE
g,Day's Low,TRUE
k,52-week High,TRUE
g4,Holdings Gain,TRUE
i,More Info,FALSE
j3,Market Cap (Real-time),FALSE
j6,Percent Change From 52-week Low,TRUE
k3,Last Trade Size,FALSE
l,Last Trade (With Time),FALSE
l3,Low Limit,TRUE
m3,50-day Moving Average,TRUE
m6,Percent Change From 200-day Moving Average,TRUE
n,Name,TRUE
p,Previous Close,TRUE
p5,Price/Sales,TRUE
r,P/E Ratio,TRUE
r5,PEG Ratio,TRUE
s,Symbol,TRUE
t1,Last Trade Time,FALSE
t8,1 yr Target Price,TRUE
v7,Holdings Value (Real-time),FALSE
w4,Day's Value Change (Real-time),FALSE
a5,Ask Size,FALSE
b3,Bid (Real-time),FALSE
c,Change & Percent Change,FALSE
c6,Change (Real-time),FALSE
d1,Last Trade Date,TRUE
e1,Error Indication (returned for symbol changed / invalid),TRUE
e9,EPS Estimate Next Quarter,TRUE
h,Day's High,FALSE
g1,Holdings Gain Percent,TRUE
g5,Holdings Gain Percent (Real-time),FALSE
i5,Order Book (Real-time),FALSE
j4,EBITDA,TRUE
k1,Last Trade (Real-time) With Time,FALSE
k4,Change From 52-week High,TRUE
l1,Last Trade (Price Only),FALSE
m,Day's Range,FALSE
m4,200-day Moving Average,TRUE
m7,Change From 50-day Moving Average,TRUE
n4,Notes,TRUE
p1,Price Paid,TRUE
p6,Price/Book,TRUE
r1,Dividend Pay Date,TRUE
r6,Price/EPS Estimate Current Year,TRUE
s1,Shares Owned,TRUE
t6,Trade Links,FALSE
v,Volume,TRUE
w,52-week Range,TRUE
x,Stock Exchange,TRUE
